Exploring a Clinical Trial Dataset – Exploring Medical Data with R
…
filter(variable == value)

or, when keeping multiple values,

filter(variable %in% c(value1, value2))

In our example

The filter() function allows us to select observations that meet specific conditions.

bp_data <- data |>
  filter(group %in% c("Placebo", "High Dose"))
bp_data

# A tibble: 60 × 15
      id group   sbp_pre sbp_post improved   age sex    weight_kg   bmi drug 
   <dbl> <chr>     <dbl>    <dbl> <chr>    <dbl> <chr>      <dbl> <dbl> <chr>
 1     1 Placebo    169      150  No        46   Male        77.8  28.3 None 
 2     2 Placebo    162.     144. No        54.7 Female      77.1  25.9 None 
 3     3 Placebo    170.     152. No        38   Male        61.2  21.1 None 
 4     4 Placebo    167.     160. No        41.7 Female      57    17.7 None 
 5     5 Placebo    160.     143. No        41.1 Male        77    28.4 None 
 6     6 Placebo    150.     143. No        30.4 Female      64.7  20.1 None 
 7     7 Placebo    172.     161. No        48   Male        74.5  26.5 None 
 8     8 Placebo    159.     153. No        47.6 Female      68.6  21.5 None 
 9     9 Placebo    148.     140. No        45.1 Male        53.5  19.1 None 
10    10 Placebo    165.     150. No        42.7 Female      79.3  29.5 None 
# ℹ 50 more rows
# ℹ 5 more variables: dose_mg <dbl>, post_check_weeks <dbl>,
#   home_sbp_avg <dbl>, followup_1y <chr>, clinic <chr>
…
